<?xml version="1.0" encoding="UTF-8" standalone="no"?>
<!-- Created with Inkscape (http://www.inkscape.org/) -->

<svg
   width="80.960434mm"
   height="80.960434mm"
   viewBox="0 0 80.960434 80.960434"
   version="1.1"
   id="svg5"
   inkscape:version="1.2.2 (b0a8486541, 2022-12-01)"
   sodipodi:docname="blocked.svg"
   xmlns:inkscape="http://www.inkscape.org/namespaces/inkscape"
   xmlns:sodipodi="http://sodipodi.sourceforge.net/DTD/sodipodi-0.dtd"
   xmlns="http://www.w3.org/2000/svg"
   xmlns:svg="http://www.w3.org/2000/svg">
  <sodipodi:namedview
     id="namedview7"
     pagecolor="#ffffff"
     bordercolor="#000000"
     borderopacity="0.25"
     inkscape:showpageshadow="2"
     inkscape:pageopacity="0.0"
     inkscape:pagecheckerboard="true"
     inkscape:deskcolor="#d1d1d1"
     inkscape:document-units="mm"
     showgrid="false"
     inkscape:zoom="1.2437373"
     inkscape:cx="40.201416"
     inkscape:cy="108.94584"
     inkscape:window-width="1900"
     inkscape:window-height="1080"
     inkscape:window-x="0"
     inkscape:window-y="0"
     inkscape:window-maximized="1"
     inkscape:current-layer="layer1" />
  <defs
     id="defs2" />
  <g
     inkscape:label="Layer 1"
     inkscape:groupmode="layer"
     id="layer1"
     transform="translate(-40.216942,-49.749725)">
    <path
       id="rect2250"
       style="display:inline;fill:#ffffff;stroke-width:0.264583"
       d="M 40.245364 49.624151 L 40.245364 89.470298 A 40.480217 40.480217 0 0 1 80.697158 49.749725 A 40.480217 40.480217 0 0 1 121.17737 90.229941 A 40.480217 40.480217 0 0 1 80.697158 130.71016 A 40.480217 40.480217 0 0 1 40.245364 90.989585 L 40.245364 130.81971 L 121.27763 130.81971 L 121.27763 49.624151 L 40.245364 49.624151 z " />
    <ellipse
       style="fill:#ffffff;stroke-width:0.745242"
       id="path1596"
       ry="6.2202806"
       rx="98.657661"
       cy="130.22516"
       cx="50.95013"
       transform="matrix(0.75845158,-0.6517294,0.36165941,0.93231029,0,0)" />
  </g>
</svg>
