<?xml version="1.0" encoding="UTF-8" standalone="no"?>
<!-- Created with Inkscape (http://www.inkscape.org/) -->

<svg
   width="80.960434mm"
   height="80.960434mm"
   viewBox="0 0 80.960434 80.960434"
   version="1.1"
   id="svg5"
   inkscape:version="1.2.2 (b0a8486541, 2022-12-01)"
   sodipodi:docname="check.svg"
   xmlns:inkscape="http://www.inkscape.org/namespaces/inkscape"
   xmlns:sodipodi="http://sodipodi.sourceforge.net/DTD/sodipodi-0.dtd"
   xmlns="http://www.w3.org/2000/svg"
   xmlns:svg="http://www.w3.org/2000/svg">
  <sodipodi:namedview
     id="namedview7"
     pagecolor="#ffffff"
     bordercolor="#000000"
     borderopacity="0.25"
     inkscape:showpageshadow="2"
     inkscape:pageopacity="0.0"
     inkscape:pagecheckerboard="true"
     inkscape:deskcolor="#d1d1d1"
     inkscape:document-units="mm"
     showgrid="false"
     inkscape:zoom="1.2437373"
     inkscape:cx="40.201416"
     inkscape:cy="109.74986"
     inkscape:window-width="1900"
     inkscape:window-height="1080"
     inkscape:window-x="0"
     inkscape:window-y="0"
     inkscape:window-maximized="1"
     inkscape:current-layer="layer1" />
  <defs
     id="defs2" />
  <g
     inkscape:label="Layer 1"
     inkscape:groupmode="layer"
     id="layer1"
     transform="translate(-40.216942,-49.749725)">
    <path
       id="rect2250"
       style="display:inline;fill:#ffffff;stroke-width:0.264583"
       d="M 40.245364 49.624151 L 40.245364 89.470298 A 40.480217 40.480217 0 0 1 80.697158 49.749725 A 40.480217 40.480217 0 0 1 121.17737 90.229941 A 40.480217 40.480217 0 0 1 80.697158 130.71016 A 40.480217 40.480217 0 0 1 40.245364 90.989585 L 40.245364 130.81971 L 121.27763 130.81971 L 121.27763 49.624151 L 40.245364 49.624151 z " />
    <path
       style="fill:#ffffff;stroke-width:0.0370411"
       d="m 55.99958,96.443749 c 0,0 8.774459,9.620861 11.513615,12.247301 2.430136,2.33014 8.211087,0.21598 8.211087,0.21598 0,0 14.074189,-27.298463 27.858448,-37.403345 3.94009,-2.888378 -7.427365,-2.278356 -10.190886,-0.146717 -4.567845,3.523395 -20.64392,20.118394 -21.258434,25.819531 -0.287567,2.667886 -4.953019,-6.595397 -7.221129,-5.330623 -4.433779,2.472424 -8.912701,4.597873 -8.912701,4.597873 z"
       id="path1696"
       sodipodi:nodetypes="cscssssc" />
  </g>
</svg>
