<?xml version="1.0" encoding="UTF-8" standalone="no"?>
<!-- Created with Inkscape (http://www.inkscape.org/) -->

<svg
   width="80.960434mm"
   height="80.960434mm"
   viewBox="0 0 80.960434 80.960434"
   version="1.1"
   id="svg5"
   inkscape:version="1.2.2 (b0a8486541, 2022-12-01)"
   sodipodi:docname="c-question.svg"
   xmlns:inkscape="http://www.inkscape.org/namespaces/inkscape"
   xmlns:sodipodi="http://sodipodi.sourceforge.net/DTD/sodipodi-0.dtd"
   xmlns="http://www.w3.org/2000/svg"
   xmlns:svg="http://www.w3.org/2000/svg">
  <sodipodi:namedview
     id="namedview7"
     pagecolor="#ffffff"
     bordercolor="#000000"
     borderopacity="0.25"
     inkscape:showpageshadow="2"
     inkscape:pageopacity="0.0"
     inkscape:pagecheckerboard="true"
     inkscape:deskcolor="#d1d1d1"
     inkscape:document-units="mm"
     showgrid="false"
     inkscape:zoom="2.2340724"
     inkscape:cx="106.0843"
     inkscape:cy="153.30748"
     inkscape:window-width="1900"
     inkscape:window-height="1080"
     inkscape:window-x="0"
     inkscape:window-y="0"
     inkscape:window-maximized="1"
     inkscape:current-layer="layer1" />
  <defs
     id="defs2" />
  <g
     inkscape:label="Layer 1"
     inkscape:groupmode="layer"
     id="layer1"
     transform="translate(-40.216942,-49.749725)">
    <path
       id="rect2250"
       style="display:inline;fill:#ffffff;stroke-width:0.264583"
       d="M 40.245364 49.624151 L 40.245364 89.470298 A 40.480217 40.480217 0 0 1 80.697158 49.749725 A 40.480217 40.480217 0 0 1 121.17737 90.229941 A 40.480217 40.480217 0 0 1 80.697158 130.71016 A 40.480217 40.480217 0 0 1 40.245364 90.989585 L 40.245364 130.81971 L 121.27763 130.81971 L 121.27763 49.624151 L 40.245364 49.624151 z " />
    <text
       xml:space="preserve"
       style="font-size:81.3119px;display:none;fill:#1a1a1a;stroke-width:0.406559"
       x="51.568901"
       y="122.66685"
       id="text410"
       transform="scale(1.0675842,0.9366943)"><tspan
         sodipodi:role="line"
         id="tspan408"
         style="font-style:normal;font-variant:normal;font-weight:normal;font-stretch:normal;font-size:81.3119px;font-family:'Liberation Sans';-inkscape-font-specification:'Liberation Sans';fill:#1a1a1a;stroke-width:0.406559"
         x="51.568901"
         y="122.66685">?</tspan></text>
    <path
       style="display:inline;fill:#ffffff;stroke-width:0.244674"
       d="m 60.36383,73.535896 c 0,0 20.89173,-32.385089 38.418804,-0.22302 3.384206,6.209994 -12.555674,13.16831 -17.24041,22.949071 -7.900843,16.495343 -6.267393,0.948946 -7.204305,-1.309898 C 71.258354,87.527376 90.092074,81.633811 87.993434,75.088922 83.215629,60.188706 67.591885,74.490357 67.591885,74.490357 Z"
       id="path2914"
       sodipodi:nodetypes="cssascc" />
    <ellipse
       style="fill:#ffffff;stroke-width:0.489643"
       id="path3045"
       cx="78.072311"
       cy="112.56059"
       rx="4.6491227"
       ry="5.0022182" />
  </g>
</svg>
